<?xml version="1.0" encoding="UTF-8" standalone="no"?>
<svg width="36px" height="36px" viewBox="0 0 36 36" version="1.1" xmlns="http://www.w3.org/2000/svg" xmlns:xlink="http://www.w3.org/1999/xlink">
    <!-- Generator: Sketch 39 (31667) - http://www.bohemiancoding.com/sketch -->
    <title>Slice Copy 9</title>
    <desc>Created with Sketch.</desc>
    <defs></defs>
    <g id="首页" stroke="none" stroke-width="1" fill="none" fill-rule="evenodd">
        <g id="Group-16-Copy" transform="translate(0.000000, 3.000000)">
            <rect id="Rectangle" fill="#3ABF9C" x="3.04680851" y="0" width="30.706383" height="30" rx="1.49787234"></rect>
            <g id="Group-15" transform="translate(7.540426, 2.307692)">
                <path d="M8.79564917,4.65996751 C10.6038505,6.21143816 14.1969435,4.00479998 13.3625198,2.49984545 C13.6506281,3.69772417 11.520681,5.75035081 9.15893888,4.11544436 C7.84677189,3.19054502 8.78949203,0.509059148 12.8983343,0.979334868 C8.69246238,-0.190563574 6.89531939,3.02944887 8.79564917,4.65996751 Z" id="Path-65" fill="#F73737" transform="translate(10.762955, 2.959134) rotate(-15.000000) translate(-10.762955, -2.959134) "></path>
                <ellipse id="Oval-57" fill="#FFFFFF" cx="15.2185178" cy="11.2470828" rx="1.29235337" ry="1.30862124"></ellipse>
                <ellipse id="Oval-57-Copy-2" fill="#FFFFFF" cx="15.2185178" cy="15.1384615" rx="1.29235337" ry="1.30862124"></ellipse>
                <ellipse id="Oval-57-Copy" fill="#FFFFFF" cx="19.833584" cy="11.2470828" rx="1.29235337" ry="1.30862124"></ellipse>
                <ellipse id="Oval-57-Copy-3" fill="#FFFFFF" cx="19.833584" cy="15.1384615" rx="1.29235337" ry="1.30862124"></ellipse>
                <ellipse id="Oval-56" fill="#FFFFFF" cx="10.6034517" cy="11.2470828" rx="1.29235337" ry="1.30862124"></ellipse>
                <ellipse id="Oval-56-Copy" fill="#FFFFFF" cx="10.6034517" cy="15.1384615" rx="1.29235337" ry="1.30862124"></ellipse>
                <ellipse id="Oval-55" fill="#FFFFFF" cx="5.98838557" cy="11.2470828" rx="1.29235337" ry="1.30862124"></ellipse>
                <ellipse id="Oval-55-Copy" fill="#FFFFFF" cx="5.98838557" cy="15.1384615" rx="1.29235337" ry="1.30862124"></ellipse>
                <ellipse id="Oval-54" fill="#FFFFFF" cx="1.75790828" cy="11.2470828" rx="1.29235337" ry="1.30862124"></ellipse>
                <ellipse id="Oval-54-Copy" fill="#FFFFFF" cx="1.75790828" cy="15.1384615" rx="1.29235337" ry="1.30862124"></ellipse>
                <ellipse id="Oval-53" fill="#FFFFFF" cx="15.2185178" cy="7.24708277" rx="1.29235337" ry="1.30862124"></ellipse>
                <ellipse id="Oval-53-Copy" fill="#FFFFFF" cx="19.833584" cy="7.24708277" rx="1.29235337" ry="1.30862124"></ellipse>
                <ellipse id="Oval-52" fill="#FFFFFF" cx="10.5459112" cy="7.29008773" rx="1.29235337" ry="1.30862124"></ellipse>
                <ellipse id="Oval-51" fill="#FFFFFF" cx="6.15190973" cy="7.29008773" rx="1.29235337" ry="1.30862124"></ellipse>
                <ellipse id="Oval-50" fill="#FFFFFF" cx="1.75790828" cy="7.29008773" rx="1.29235337" ry="1.30862124"></ellipse>
                <ellipse id="Oval-59" fill="#FFFFFF" cx="15.2185178" cy="3.24708277" rx="1.29235337" ry="1.30862124"></ellipse>
                <ellipse id="Oval-59-Copy" fill="#FFFFFF" cx="19.833584" cy="3.24708277" rx="1.29235337" ry="1.30862124"></ellipse>
                <path d="M10.5459112,4.55570401 C11.2596582,4.55570401 11.8382645,3.96981433 11.8382645,3.24708277 C11.8382645,2.52435122 11.2596582,1.93846154 10.5459112,1.93846154 C9.83216411,1.93846154 9.2535578,2.52435122 9.2535578,3.24708277 C9.2535578,3.96981433 9.83216411,4.55570401 10.5459112,4.55570401 Z" id="Oval-48" fill="#FFFFFF"></path>
                <ellipse id="Oval-58" fill="#FFFFFF" cx="6.15190973" cy="3.24708277" rx="1.29235337" ry="1.30862124"></ellipse>
                <ellipse id="Oval-47" fill="#FFFFFF" cx="1.75790828" cy="3.24708277" rx="1.29235337" ry="1.30862124"></ellipse>
            </g>
            <path d="M2.27712768,17.6221274 C2.44183961,16.811218 3.24690638,16.1538462 4.07135916,16.1538462 L32.53469,16.1538462 C33.3609048,16.1538462 34.169658,16.8163795 34.3386728,17.6221274 L35.8407865,24.7831889 C36.0108839,25.5940982 35.4689404,26.2514701 34.6521112,26.2514701 L2.02099922,26.2514701 C1.19441454,26.2514701 0.658909051,25.5889368 0.822572596,24.7831889 L2.27712768,17.6221274 Z" id="Rectangle-Copy" fill="#7ADAC0"></path>
            <rect id="Rectangle-5" fill="#FFFFFF" x="8.2893617" y="17.6923077" width="17.9744681" height="0.769230769"></rect>
            <rect id="Rectangle-5-Copy" fill="#FFFFFF" x="8.2893617" y="20" width="17.9744681" height="0.769230769"></rect>
            <rect id="Rectangle-5-Copy-2" fill="#FFFFFF" x="8.2893617" y="22.3076923" width="10.4851064" height="0.769230769"></rect>
        </g>
    </g>
</svg>