<?xml version="1.0" encoding="UTF-8" standalone="no"?>
<svg width="36px" height="36px" viewBox="0 0 36 36" version="1.1" xmlns="http://www.w3.org/2000/svg" xmlns:xlink="http://www.w3.org/1999/xlink">
    <!-- Generator: Sketch 39 (31667) - http://www.bohemiancoding.com/sketch -->
    <title>Slice Copy 5</title>
    <desc>Created with Sketch.</desc>
    <defs>
        <rect id="path-1" x="0" y="2.64650678" width="19.7631242" height="5.29301356" rx="2.64650678"></rect>
        <filter x="-50%" y="-50%" width="200%" height="200%" filterUnits="objectBoundingBox" id="filter-2">
            <feOffset dx="0" dy="3" in="SourceAlpha" result="shadowOffsetOuter1"></feOffset>
            <feColorMatrix values="0 0 0 0 0.26221267   0 0 0 0 0.696403993   0 0 0 0 0.846832483  0 0 0 1 0" type="matrix" in="shadowOffsetOuter1"></feColorMatrix>
        </filter>
        <ellipse id="path-3" cx="9.8815621" cy="2.64650678" rx="2.61570761" ry="2.64650678"></ellipse>
        <filter x="-50%" y="-50%" width="200%" height="200%" filterUnits="objectBoundingBox" id="filter-4">
            <feGaussianBlur stdDeviation="1.5" in="SourceAlpha" result="shadowBlurInner1"></feGaussianBlur>
            <feOffset dx="0" dy="2" in="shadowBlurInner1" result="shadowOffsetInner1"></feOffset>
            <feComposite in="shadowOffsetInner1" in2="SourceAlpha" operator="arithmetic" k2="-1" k3="1" result="shadowInnerInner1"></feComposite>
            <feColorMatrix values="0 0 0 0 0.262745098   0 0 0 0 0.698039216   0 0 0 0 0.847058824  0 0 0 1 0" type="matrix" in="shadowInnerInner1"></feColorMatrix>
        </filter>
        <ellipse id="path-5" cx="9.8815621" cy="2.64650678" rx="1.4531709" ry="1.47028154"></ellipse>
        <filter x="-50%" y="-50%" width="200%" height="200%" filterUnits="objectBoundingBox" id="filter-6">
            <feOffset dx="0" dy="2" in="SourceAlpha" result="shadowOffsetInner1"></feOffset>
            <feComposite in="shadowOffsetInner1" in2="SourceAlpha" operator="arithmetic" k2="-1" k3="1" result="shadowInnerInner1"></feComposite>
            <feColorMatrix values="0 0 0 0 0.262745098   0 0 0 0 0.698039216   0 0 0 0 0.847058824  0 0 0 1 0" type="matrix" in="shadowInnerInner1"></feColorMatrix>
        </filter>
    </defs>
    <g id="首页" stroke="none" stroke-width="1" fill="none" fill-rule="evenodd">
        <g id="文件夹-copy-2" transform="translate(4.000000, 0.000000)">
            <rect id="白纸" fill="#55C7ED" x="0.527886571" y="7.35140772" width="26.4477103" height="27.9353493" rx="2.54545455"></rect>
            <g id="夹子" transform="translate(4.015497, 0.000000)">
                <g id="Rectangle-38">
                    <use fill="black" fill-opacity="1" filter="url(#filter-2)" xlink:href="#path-1"></use>
                    <use fill="#8AD8F3" fill-rule="evenodd" xlink:href="#path-1"></use>
                </g>
                <g id="Oval-15">
                    <use fill="#8AD8F3" fill-rule="evenodd" xlink:href="#path-3"></use>
                    <use fill="black" fill-opacity="1" filter="url(#filter-4)" xlink:href="#path-3"></use>
                </g>
                <g id="Oval-16">
                    <use fill="#FFFFFF" fill-rule="evenodd" xlink:href="#path-5"></use>
                    <use fill="black" fill-opacity="1" filter="url(#filter-6)" xlink:href="#path-5"></use>
                </g>
            </g>
            <g id="其他内容" transform="translate(4.596765, 15.879041)" fill="#FFFFFF">
                <rect id="Rectangle-41" x="5.23141523" y="0.588112617" width="13.9504406" height="1.47028154"></rect>
                <rect id="Rectangle-42" x="5.23141523" y="4.99895725" width="13.9504406" height="1.47028154"></rect>
                <rect id="Rectangle-43" x="5.23141523" y="9.40980188" width="13.9504406" height="1.47028154"></rect>
                <rect id="Rectangle-44" x="5.23141523" y="13.8206465" width="13.9504406" height="1.47028154"></rect>
                <rect id="Rectangle-45" x="0" y="13.2325339" width="2.90634179" height="2.94056309"></rect>
                <rect id="Rectangle-46" x="0" y="8.82168926" width="2.90634179" height="2.94056309"></rect>
                <rect id="Rectangle-47" x="0" y="4.41084463" width="2.90634179" height="2.94056309"></rect>
                <rect id="Rectangle-48" x="0" y="0" width="2.90634179" height="2.94056309"></rect>
            </g>
            <g id="完成内容" transform="translate(4.370007, 11.444469)" fill="#FFFFFF">
                <rect id="Rectangle-40" x="5.45817376" y="0.611839985" width="13.9504406" height="1.47028154"></rect>
                <path d="M3.39410156,0.217001745 L3.8794188,0.775295372 L1.46663041,2.87270032 L0.116202332,1.31921053 L0.760596453,0.759047268 L1.62570728,1.75424343 L3.39410156,0.217001745 Z" id="Rectangle-49"></path>
            </g>
        </g>
    </g>
</svg>