<?xml version="1.0" encoding="UTF-8" standalone="no"?>
<svg width="36px" height="36px" viewBox="0 0 36 36" version="1.1" xmlns="http://www.w3.org/2000/svg" xmlns:xlink="http://www.w3.org/1999/xlink">
    <!-- Generator: Sketch 39 (31667) - http://www.bohemiancoding.com/sketch -->
    <title>Slice Copy 4</title>
    <desc>Created with Sketch.</desc>
    <defs></defs>
    <g id="首页" stroke="none" stroke-width="1" fill="none" fill-rule="evenodd">
        <g id="notebook-copy-2" transform="translate(1.000000, 0.000000)">
            <path d="M29.7014297,36 L5.44052344,36 C4.57603125,36 3.87529688,35.2992656 3.87529688,34.4347734 L3.87529688,6.26083594 C3.87529688,5.39634375 4.57603125,4.69560937 5.44052344,4.69560937 L29.7013594,4.69560937 C31.4302031,4.69560937 32.8318125,6.09714844 32.8318125,7.8260625 L32.8318125,32.8695469 C32.8318828,34.5983906 31.4302734,36 29.7014297,36 L29.7014297,36 Z" id="Shape" fill="#3ABF9C"></path>
            <path d="M3.94052344,36 C3.07603125,36 2.37529688,35.2992656 2.37529688,34.4347734 L2.37529688,6.26083594 C2.37529688,5.39634375 3.07603125,4.69560937 3.94052344,4.69560937 L7.85355469,4.69560937 L7.85355469,36 L3.94052344,36 Z" id="Shape" fill="#7ADAC0"></path>
            <path d="M0.0274921875,9.78257812 C0.0274921875,9.13429687 0.553078125,8.60864062 1.20142969,8.60864062 L3.54923438,8.60864062 C4.19751563,8.60864062 4.72317188,9.13422656 4.72317188,9.78257812 C4.72317188,10.4308594 4.19758594,10.9565156 3.54923438,10.9565156 L1.20142969,10.9565156 C0.553148438,10.9565156 0.0274921875,10.4309297 0.0274921875,9.78257812 L0.0274921875,9.78257812 Z M3.54923438,13.3043203 L1.20142969,13.3043203 C0.553148438,13.3043203 0.0274921875,13.8299062 0.0274921875,14.4782578 C0.0274921875,15.1265391 0.553078125,15.6521953 1.20142969,15.6521953 L3.54923438,15.6521953 C4.19751563,15.6521953 4.72317188,15.1266094 4.72317188,14.4782578 C4.72317188,13.8299766 4.19758594,13.3043203 3.54923438,13.3043203 L3.54923438,13.3043203 Z M3.54923438,25.0434844 L1.20142969,25.0434844 C0.553148438,25.0434844 0.0274921875,25.5690703 0.0274921875,26.2174219 C0.0274921875,26.8657031 0.553078125,27.3913594 1.20142969,27.3913594 L3.54923438,27.3913594 C4.19751563,27.3913594 4.72317188,26.8657734 4.72317188,26.2174219 C4.72317188,25.5690703 4.19758594,25.0434844 3.54923438,25.0434844 L3.54923438,25.0434844 Z M3.54923438,29.7391641 L1.20142969,29.7391641 C0.553148438,29.7391641 0.0274921875,30.26475 0.0274921875,30.9131016 C0.0274921875,31.5613828 0.553078125,32.0870391 1.20142969,32.0870391 L3.54923438,32.0870391 C4.19751563,32.0870391 4.72317188,31.5614531 4.72317188,30.9131016 C4.72317188,30.26475 4.19758594,29.7391641 3.54923438,29.7391641 L3.54923438,29.7391641 Z" id="Shape" fill="#3ABF9C"></path>
            <path d="M0.0274921875,9.78257812 L2.37529688,9.78257812 C3.02357813,9.78257812 3.54923438,9.25699219 3.54923438,8.60864062 C4.19751563,8.60864062 4.72317188,9.13422656 4.72317188,9.78257812 C4.72317188,10.4308594 4.19758594,10.9565156 3.54923438,10.9565156 L1.20142969,10.9565156 C0.553148438,10.9565156 0.0274921875,10.4309297 0.0274921875,9.78257812 L0.0274921875,9.78257812 Z M3.54923438,13.3043203 C3.54923438,13.9526016 3.02364844,14.4782578 2.37529688,14.4782578 L0.0274921875,14.4782578 C0.0274921875,15.1265391 0.553078125,15.6521953 1.20142969,15.6521953 L3.54923438,15.6521953 C4.19751563,15.6521953 4.72317188,15.1266094 4.72317188,14.4782578 C4.72317188,13.8299766 4.19758594,13.3043203 3.54923438,13.3043203 L3.54923438,13.3043203 Z M3.54923438,25.0434844 C3.54923438,25.6917656 3.02364844,26.2174219 2.37529688,26.2174219 L0.0274921875,26.2174219 C0.0274921875,26.8657031 0.553078125,27.3913594 1.20142969,27.3913594 L3.54923438,27.3913594 C4.19751563,27.3913594 4.72317188,26.8657734 4.72317188,26.2174219 C4.72317188,25.5690703 4.19758594,25.0434844 3.54923438,25.0434844 L3.54923438,25.0434844 Z M3.54923438,29.7391641 C3.54923438,30.3874453 3.02364844,30.9131016 2.37529688,30.9131016 L0.0274921875,30.9131016 C0.0274921875,31.5613828 0.553078125,32.0870391 1.20142969,32.0870391 L3.54923438,32.0870391 C4.19751563,32.0870391 4.72317188,31.5614531 4.72317188,30.9131016 C4.72317188,30.26475 4.19758594,29.7391641 3.54923438,29.7391641 L3.54923438,29.7391641 Z" id="Shape" fill="#3ABF9C"></path>
            <path d="M21.9405234,15.6521953 L12.5492344,15.6521953 C12.1170234,15.6521953 11.7666563,15.3018281 11.7666563,14.8696172 L11.7666563,9.39135937 C11.7666563,8.95914844 12.1170234,8.60878125 12.5492344,8.60878125 L21.9405234,8.60878125 C22.3727344,8.60878125 22.7231016,8.95914844 22.7231016,9.39135937 L22.7231016,14.8696172 C22.7231719,15.3018281 22.3728047,15.6521953 21.9405234,15.6521953 L21.9405234,15.6521953 Z" id="Shape" fill="#FFFFFF"></path>
            <path d="M25.4458828,6.80871094 L20.7666563,6.80871094 L20.7666563,1.56522656 C20.7666563,0.700734375 21.4673906,0 22.3318828,0 L23.8971094,0 C24.6884063,0 25.3408359,0.587742188 25.4458828,1.35021094 L25.4458828,6.80871094 L25.4458828,6.80871094 Z" id="Shape" fill="#7ADAC0"></path>
            <path d="M22.7231719,1.56522656 L21.1579453,1.56522656 C21.0235078,1.56522656 20.8937109,1.54645312 20.7691875,1.51460156 C20.7961172,0.673734375 21.4845469,0 22.3318828,0 L23.8971094,0 C24.0315469,0 24.1613438,0.0187734375 24.2858672,0.050625 C24.2588672,0.891492188 23.5705078,1.56522656 22.7231719,1.56522656 L22.7231719,1.56522656 Z" id="Shape" fill="#7ADAC0"></path>
            <path d="M23.7014297,24.2608359 L23.7014297,27.3912891 C23.7014297,27.7154297 23.4386016,27.9782578 23.1144609,27.9782578 C22.7903203,27.9782578 22.5274922,27.7154297 22.5274922,27.3912891 L22.5274922,24.2608359 C22.5274922,23.9366953 22.7903203,23.6738672 23.1144609,23.6738672 C23.4386016,23.6738672 23.7014297,23.9366953 23.7014297,24.2608359 L23.7014297,24.2608359 Z" id="Shape" fill="#FFFFFF"></path>
            <path d="M26.6362031,3.13045313 L26.6362031,22.6956797 C26.6362031,23.5601719 25.9354687,24.2609063 25.0709766,24.2609063 L25.0709766,25.0434844 C25.0709766,25.9079766 24.3702422,26.6087109 23.50575,26.6087109 L22.7231719,26.6087109 C21.8586797,26.6087109 21.1579453,25.9079766 21.1579453,25.0434844 L21.1579453,24.2609063 C20.2934531,24.2609063 19.5927187,23.5601719 19.5927187,22.6956797 L19.5927187,3.13045313 C19.5927187,2.69824219 19.9430859,2.347875 20.3752969,2.347875 L25.8535547,2.347875 C26.2858359,2.34780469 26.6362031,2.69817188 26.6362031,3.13045313 L26.6362031,3.13045313 Z" id="Shape" fill="#7ADAC0"></path>
            <polygon id="Shape" fill="#FFFFFF" points="25.0709766 22.6956797 24.2858672 22.6956797 24.2858672 2.34780469 25.0709766 2.34780469"></polygon>
            <path d="M25.0709766,24.2608359 L21.1579453,24.2608359 C20.2934531,24.2608359 19.5927187,23.5601016 19.5927187,22.6956094 L19.5927187,15.6521953 L26.6362031,15.6521953 L26.6362031,22.6956797 C26.6362031,23.5601016 25.9354687,24.2608359 25.0709766,24.2608359 L25.0709766,24.2608359 Z" id="Shape" fill="#7ADAC0"></path>
        </g>
    </g>
</svg>