<?xml version="1.0" encoding="UTF-8" standalone="no"?>
<svg width="24px" height="24px" viewBox="0 0 24 24" version="1.1" xmlns="http://www.w3.org/2000/svg" xmlns:xlink="http://www.w3.org/1999/xlink">
    <!-- Generator: Sketch 39 (31667) - http://www.bohemiancoding.com/sketch -->
    <title>Group 7</title>
    <desc>Created with Sketch.</desc>
    <defs></defs>
    <g id="首页" stroke="none" stroke-width="1" fill="none" fill-rule="evenodd">
        <g id="Artboard-Copy" transform="translate(-255.000000, -497.000000)">
            <g id="Group-7" transform="translate(255.000000, 497.000000)">
                <g id="map">
                    <path d="M23.3478281,6.26085938 C23.3478281,6.47695313 23.1726094,6.65217188 22.9565156,6.65217188 C22.7404219,6.65217188 22.5652031,6.47695313 22.5652031,6.26085938 C22.5652031,5.80542188 22.2749063,5.40267188 21.8428125,5.25867188 L12,1.97770313 L2.15714063,5.25867188 C1.72509375,5.40267188 1.43479688,5.80546875 1.43479688,6.26085938 C1.43479688,6.47695313 1.25957813,6.65217188 1.04348438,6.65217188 C0.827390625,6.65217188 0.652171875,6.47695313 0.652171875,6.26085938 C0.652171875,5.46801563 1.15753125,4.76690625 1.9096875,4.51617188 L11.8762969,1.194 C11.9565938,1.16723438 12.0434531,1.16723438 12.12375,1.194 L22.0903125,4.51617188 C22.8424688,4.76690625 23.3478281,5.46801563 23.3478281,6.26085938 L23.3478281,6.26085938 Z" id="Shape" fill="#FF724C"></path>
                    <path d="M13.5652031,1.56520313 C13.5652031,2.42967187 12.8644688,3.13040625 12,3.13040625 C11.1355313,3.13040625 10.4347969,2.42967187 10.4347969,1.56520313 C10.4347969,0.700734375 11.1355313,0 12,0 C12.8644688,0 13.5652031,0.700734375 13.5652031,1.56520313 L13.5652031,1.56520313 Z" id="Shape" fill="#FF724C"></path>
                    <path d="M13.3553438,0.782625 C13.0846875,1.25029687 12.5793281,1.56525 12,1.56525 C11.4207188,1.56525 10.9153594,1.25034375 10.6446563,0.782625 C10.9153594,0.31490625 11.4207656,0 12,0 C12.5792344,0 13.0846406,0.31490625 13.3553438,0.782625 L13.3553438,0.782625 Z" id="Shape" fill="#FF724C"></path>
                    <path d="M22.9565156,24 L1.04348437,24 C0.46715625,24 0,23.5328437 0,22.9565156 L0,7.30434375 C0,6.72801562 0.46715625,6.26085937 1.04348437,6.26085937 L22.9565156,6.26085937 C23.5328437,6.26085937 24,6.72801562 24,7.30434375 L24,22.9565156 C24,23.5328437 23.5328437,24 22.9565156,24 L22.9565156,24 Z" id="Shape" fill="#FF724C"></path>
                    <path d="M21.3913125,21.9130312 L2.6086875,21.9130312 C2.32054687,21.9130312 2.08696875,21.6794531 2.08696875,21.3913125 L2.08696875,8.86959375 C2.08696875,8.58145312 2.32054687,8.347875 2.6086875,8.347875 L21.3913125,8.347875 C21.6794531,8.347875 21.9130312,8.58145312 21.9130312,8.86959375 L21.9130312,21.3913125 C21.9130312,21.6794531 21.6794531,21.9130312 21.3913125,21.9130312 L21.3913125,21.9130312 Z" id="Shape" fill="#FFB09B"></path>
                </g>
                <path d="M19.3846154,10.7151858 C19.3846154,11.0251733 19.1332633,11.2765255 18.8232757,11.2765255 L6.09980119,11.2765255 C5.78981367,11.2765255 5.53846154,11.0251733 5.53846154,10.7151858 C5.53846154,10.4051983 5.78981367,10.1538462 6.09980119,10.1538462 L18.8232085,10.1538462 C19.1332633,10.1538462 19.3846154,10.4051983 19.3846154,10.7151858 L19.3846154,10.7151858 Z M16.2411671,13.1476128 L11.0021092,13.1476128 C10.6921217,13.1476128 10.4407695,13.3989649 10.4407695,13.7089524 C10.4407695,14.0189399 10.6921217,14.2702921 11.0021092,14.2702921 L16.2411671,14.2702921 C16.5511547,14.2702921 16.8025068,14.0189399 16.8025068,13.7089524 C16.8025068,13.3988977 16.5511547,13.1476128 16.2411671,13.1476128 L16.2411671,13.1476128 Z M8.75675058,13.1476128 L8.68190977,13.1476128 C8.37192226,13.1476128 8.12057013,13.3989649 8.12057013,13.7089524 C8.12057013,14.0189399 8.37192226,14.2702921 8.68190977,14.2702921 L8.75675058,14.2702921 C9.06673809,14.2702921 9.31809023,14.0189399 9.31809023,13.7089524 C9.31809023,13.3988977 9.06680534,13.1476128 8.75675058,13.1476128 L8.75675058,13.1476128 Z" id="Shape" fill="#FFFFFF"></path>
            </g>
        </g>
    </g>
</svg>