<?xml version="1.0" encoding="UTF-8" standalone="no"?>
<svg width="21px" height="21px" viewBox="0 0 21 21" version="1.1" xmlns="http://www.w3.org/2000/svg" xmlns:xlink="http://www.w3.org/1999/xlink">
    <!-- Generator: Sketch 39 (31667) - http://www.bohemiancoding.com/sketch -->
    <title>store</title>
    <desc>Created with Sketch.</desc>
    <defs></defs>
    <g id="首页" stroke="none" stroke-width="1" fill="none" fill-rule="evenodd">
        <g id="Artboard-Copy" transform="translate(-153.000000, -470.000000)">
            <g id="store" transform="translate(153.000000, 470.000000)">
                <polygon id="Rectangle-60" fill="#FFDD65" points="1.41891892 0 19.6238981 0 21 18.7297297 0 18.7297297"></polygon>
                <polygon id="Rectangle-61" fill="#FFC547" transform="translate(10.500000, 19.864865) scale(1, -1) translate(-10.500000, -19.864865) " points="0.689298063 18.7297297 20.1794797 18.7297297 21 21 0 21"></polygon>
                <circle id="Oval-41" fill="#93AF27" cx="5.39189189" cy="3.12162162" r="0.567567568"></circle>
                <ellipse id="Oval-41" fill="#93AF27" cx="15.6081081" cy="3.12162162" rx="0.567567568" ry="0.567567568"></ellipse>
                <path d="M5.49574709,3.12162162 C5.49574709,3.12162162 5.01854282,12.5472468 10.5004566,12.1975152 C15.9823704,11.8477836 15.5041951,3.12162162 15.5041951,3.12162162" id="Path-118" stroke="#FFFFFF" stroke-width="0.77027027" stroke-linecap="round"></path>
            </g>
        </g>
    </g>
</svg>