<?xml version="1.0" encoding="UTF-8" standalone="no"?>
<svg width="106px" height="56px" viewBox="0 0 106 56" version="1.1" xmlns="http://www.w3.org/2000/svg" xmlns:xlink="http://www.w3.org/1999/xlink">
    <!-- Generator: Sketch 39.1 (31720) - http://www.bohemiancoding.com/sketch -->
    <title>Group 4</title>
    <desc>Created with Sketch.</desc>
    <defs></defs>
    <g id="Page-1" stroke="none" stroke-width="1" fill="none" fill-rule="evenodd">
        <g id="Artboard-Copy" transform="translate(-566.000000, -265.000000)">
            <g id="Group-4" transform="translate(566.000000, 265.000000)">
                <path d="M12.9406604,27.284521 L2.32760418,16.4078725 C1.79702565,15.8640425 0.928671175,15.8640425 0.397996799,16.4078725 C-0.132677577,16.9517025 -0.132653622,17.8416484 0.397996799,18.3854784 L10.0516649,28.2788371 L0.397996799,38.1722695 C-0.132653622,38.7160995 -0.132653622,39.6060455 0.397996799,40.1498018 C0.92864722,40.6936318 1.79702565,40.6936318 2.32760418,40.1498018 L12.9406604,29.273227 C13.2074114,28.9998508 13.3389897,28.6391721 13.3375759,28.2788371 C13.3389897,27.9185022 13.2074114,27.5578971 12.9406604,27.284521 L12.9406604,27.284521 Z" id="Shape-Copy" fill="#707A79"></path>
                <g id="notebook-1" transform="translate(51.000000, 0.000000)">
                    <path d="M15.4108268,1.77333333 L6.5651378,1.77333333 L6.5651378,3.84229457 L8.62915354,3.84229457 C10.0925,3.84229457 11.2829035,5.03565891 11.2829035,6.5024031 C11.2829035,7.96914729 10.0925,9.16251163 8.62915354,9.16251163 L6.5651378,9.16251163 L6.5651378,18.0293953 L8.62915354,18.0293953 C10.0925,18.0293953 11.2829035,19.2227597 11.2829035,20.6895039 C11.2829035,22.1562481 10.0925,23.3496124 8.62915354,23.3496124 L6.5651378,23.3496124 L6.5651378,32.2164961 L8.62915354,32.2164961 C10.0925,32.2164961 11.2829035,33.4098605 11.2829035,34.8766047 C11.2829035,36.3433488 10.0925,37.5367132 8.62915354,37.5367132 L6.5651378,37.5367132 L6.5651378,46.4035969 L8.62915354,46.4035969 C10.0925,46.4035969 11.2829035,47.5969612 11.2829035,49.0637054 C11.2829035,50.5304496 10.0925,51.723814 8.62915354,51.723814 L6.5651378,51.723814 L6.5651378,53.7927752 L15.4108268,53.7927752 L15.4108268,1.77333333 L15.4108268,1.77333333 Z" id="Shape" fill="#FFFFFF"></path>
                    <rect id="Rectangle-path" fill="#55C7ED" x="5.99417083" y="1.77333333" width="37.7229256" height="5.61573643"></rect>
                    <rect id="Rectangle-path" fill="#55C7ED" x="5.99417083" y="28.6696124" width="37.7229256" height="7.98021705"></rect>
                    <rect id="Rectangle-path" fill="#55C7ED" x="5.99417083" y="48.1768217" width="26.0530733" height="5.61573643"></rect>
                    <rect id="Rectangle-path" fill="#55C7ED" x="5.99417083" y="9.16251163" width="37.7229256" height="7.98021705"></rect>
                    <rect id="Rectangle-path" fill="#55C7ED" x="5.99417083" y="18.916062" width="37.7229256" height="7.98021705"></rect>
                    <path d="M26.9513517,46.4033798 C26.9513517,46.4033798 32.8412324,46.9295564 32.8412324,45.7505799 L32.8412324,43.8352302 L32.8412324,42.5684588 L43.7170965,41.969938 L43.7170965,38.4231628 L5.99417083,38.4231628 L5.99417083,46.4033798 L26.9513517,46.4033798 Z" id="Shape" fill="#55C7ED"></path>
                    <polygon id="Shape" fill="#FFFFFF" points="15.4108268 53.7925581 17.1800295 53.7925581 17.1800295 48.1768217 31.9228445 48.1768217 31.9228445 46.4033798 17.1800295 46.4033798 17.1800295 38.4232713 43.7170965 38.4232713 43.7170965 36.6498295 17.1800295 36.6498295 17.1800295 28.6696124 43.7170965 28.6696124 43.7170965 26.8962791 17.1800295 26.8962791 17.1800295 18.916062 43.7170965 18.916062 43.7170965 17.1426202 17.1800295 17.1426202 17.1800295 9.16251163 43.7170965 9.16251163 43.7170965 7.38906977 17.1800295 7.38906977 17.1800295 1.77333333 15.4108268 1.77333333"></polygon>
                    <path d="M52.8577067,53.7925581 L53.1525197,53.7925581 L53.1525197,1.77333333 L52.8577067,1.77333333 C52.3692028,1.77333333 51.9731594,1.37644961 51.9731594,0.886666667 L50.204065,0.886666667 L50.204065,54.6792248 L51.9731594,54.6792248 C51.9731594,54.1894419 52.3692028,53.7925581 52.8577067,53.7925581 L52.8577067,53.7925581 Z" id="Shape" fill="#8AD8F3"></path>
                    <path d="M37.8113091,53.7925581 L48.4348622,53.7925581 L48.4348622,1.77333333 L48.1400492,1.77333333 C47.6515453,1.77333333 47.255502,1.37644961 47.255502,0.886666667 L45.4864075,0.886666667 L45.4864075,42.8566047 C45.4864075,42.8862326 45.4848917,42.9158605 45.4819685,42.9451628 C45.4798031,42.9670853 45.476122,42.9883566 45.4724409,43.0096279 C45.4711417,43.0167907 45.4706004,43.024062 45.4690846,43.0311163 C45.4639961,43.0565116 45.4575,43.0813643 45.4503543,43.1057829 C45.4494882,43.1087132 45.4489469,43.111969 45.4479724,43.1148992 C45.4402854,43.139969 45.4312992,43.1643876 45.4216634,43.1885891 C45.4205807,43.1911938 45.4199311,43.1937984 45.4188484,43.1964031 C45.4093209,43.2194109 45.3984941,43.2417674 45.387126,43.2637984 C45.3852854,43.2674884 45.3836614,43.2713953 45.3818209,43.2748682 C45.3708858,43.2952713 45.3586516,43.3149147 45.3463091,43.3344496 C45.3431693,43.3394419 45.3405709,43.3446512 45.3372146,43.3494264 C45.3250886,43.3676589 45.3117717,43.3849147 45.2983465,43.4021705 C45.2940157,43.407814 45.2901181,43.4137829 45.2854626,43.4193178 C45.2686811,43.4397209 45.2508169,43.4592558 45.2323031,43.4781395 C45.2305709,43.479876 45.2291634,43.4818295 45.2273228,43.4835659 L34.0584252,54.6792248 L36.9266535,54.6792248 C36.9266535,54.1894419 37.3226969,53.7925581 37.8113091,53.7925581 L37.8113091,53.7925581 Z" id="Shape" fill="#8AD8F3"></path>
                    <polygon id="Shape" fill="#8AD8F3" points="33.691939 43.7433798 33.691939 52.5386357 42.4661713 43.7433798"></polygon>
                    <path d="M45.2320866,43.4782481 C45.2506004,43.4594729 45.2684646,43.439938 45.2852461,43.4194264 C45.2897933,43.4138915 45.2935827,43.4079225 45.2981299,43.4022791 C45.3115551,43.3850233 45.324872,43.3677674 45.336998,43.3495349 C45.3403543,43.3446512 45.3428445,43.3394419 45.3460925,43.3345581 C45.3585433,43.3150233 45.3707776,43.2953798 45.3816043,43.2749767 C45.3836614,43.2712868 45.3850689,43.2674884 45.3869094,43.263907 C45.3982776,43.241876 45.4091043,43.2195194 45.4186319,43.1965116 C45.4197146,43.1940155 45.4203642,43.1913023 45.4214469,43.1886977 C45.4310827,43.1646047 45.4401772,43.1400775 45.4477559,43.1150078 C45.4487303,43.1120775 45.4491634,43.1088217 45.4501378,43.1058915 C45.4572835,43.0812558 45.4637795,43.0566202 45.4688681,43.0312248 C45.4702756,43.0241705 45.4709252,43.0167907 45.4722244,43.0097364 C45.4759055,42.9884651 45.4796949,42.9670853 45.481752,42.9452713 C45.4846752,42.915969 45.4861909,42.8865581 45.4861909,42.8567132 L45.4861909,0.886666667 C45.4861909,0.396883721 45.0901476,0 44.6016437,0 L5.68059055,0 C5.19208661,0 4.79604331,0.396883721 4.79604331,0.886666667 L4.79604331,3.84229457 L2.73202756,3.84229457 C1.2686811,3.84229457 0.0782775591,5.03565891 0.0782775591,6.5024031 C0.0782775591,7.96914729 1.2686811,9.16251163 2.73202756,9.16251163 L4.79604331,9.16251163 L4.79604331,18.0293953 L2.73202756,18.0293953 C1.2686811,18.0293953 0.0782775591,19.2227597 0.0782775591,20.6895039 C0.0782775591,22.1562481 1.2686811,23.3496124 2.73202756,23.3496124 L4.79604331,23.3496124 L4.79604331,32.2164961 L2.73202756,32.2164961 C1.2686811,32.2164961 0.0782775591,33.4098605 0.0782775591,34.8766047 C0.0782775591,36.3433488 1.2686811,37.5367132 2.73202756,37.5367132 L4.79604331,37.5367132 L4.79604331,46.4035969 L2.73202756,46.4035969 C1.2686811,46.4035969 0.0782775591,47.5969612 0.0782775591,49.0637054 C0.0782775591,50.5304496 1.2686811,51.723814 2.73202756,51.723814 L4.79604331,51.723814 L4.79604331,54.6794419 C4.79604331,55.1692248 5.19208661,55.5661085 5.68059055,55.5661085 L32.8073917,55.5661085 C32.8369488,55.5661085 32.8665059,55.5645891 32.8957382,55.5616589 C32.9177165,55.5594884 32.9391535,55.5557984 32.9604823,55.552 C32.9674114,55.5508062 32.9745571,55.550155 32.9814862,55.5488527 C33.0067126,55.5438605 33.0313976,55.5372403 33.0557579,55.530186 C33.0587894,55.5292093 33.0621457,55.5287752 33.0651772,55.5276899 C33.0897539,55.5202016 33.1135728,55.5114109 33.1369587,55.501969 C33.1400984,55.5006667 33.1433465,55.4996899 33.1464862,55.4983876 C33.1687894,55.4891628 33.1902264,55.4785271 33.2115551,55.4675659 C33.2158858,55.4652868 33.2205413,55.4635504 33.2247638,55.4611628 C33.244252,55.4507442 33.262874,55.4390233 33.2813878,55.4271938 C33.2872343,55.4235039 33.2934055,55.4202481 33.2991437,55.4163411 C33.3163583,55.4047287 33.3327067,55.392031 33.3490551,55.3793333 C33.3555512,55.3743411 33.362372,55.3698915 33.3687598,55.3645736 C33.3886811,55.348186 33.407628,55.3306047 33.4260335,55.3125891 C33.4281988,55.3104186 33.4305807,55.3086822 33.4327461,55.3065116 L45.226998,43.484 C45.2289469,43.481938 45.2303543,43.4799845 45.2320866,43.4782481 L45.2320866,43.4782481 Z M1.84748031,49.0634884 C1.84748031,48.5744651 2.2442815,48.1768217 2.73202756,48.1768217 L8.62915354,48.1768217 C9.11700787,48.1768217 9.51370079,48.5745736 9.51370079,49.0634884 C9.51370079,49.5524031 9.11689961,49.950155 8.62915354,49.950155 L2.73202756,49.950155 C2.24417323,49.950155 1.84748031,49.5525116 1.84748031,49.0634884 L1.84748031,49.0634884 Z M6.5651378,51.7235969 L8.62915354,51.7235969 C10.0925,51.7235969 11.2829035,50.5302326 11.2829035,49.0634884 C11.2829035,47.5967442 10.0925,46.4033798 8.62915354,46.4033798 L6.5651378,46.4033798 L6.5651378,37.5364961 L8.62915354,37.5364961 C10.0925,37.5364961 11.2829035,36.3431318 11.2829035,34.8763876 C11.2829035,33.4096434 10.0925,32.2162791 8.62915354,32.2162791 L6.5651378,32.2162791 L6.5651378,23.3493953 L8.62915354,23.3493953 C10.0925,23.3493953 11.2829035,22.156031 11.2829035,20.6892868 C11.2829035,19.2225426 10.0925,18.0291783 8.62915354,18.0291783 L6.5651378,18.0291783 L6.5651378,9.16251163 L8.62915354,9.16251163 C10.0925,9.16251163 11.2829035,7.96914729 11.2829035,6.5024031 C11.2829035,5.03565891 10.0925,3.84229457 8.62915354,3.84229457 L6.5651378,3.84229457 L6.5651378,1.77333333 L43.7170965,1.77333333 L43.7170965,41.969938 L32.8073917,41.969938 C32.3188878,41.969938 31.9228445,42.3668217 31.9228445,42.8566047 L31.9228445,53.7925581 L6.5651378,53.7925581 L6.5651378,51.7235969 L6.5651378,51.7235969 Z M1.84748031,34.8764961 C1.84748031,34.3874729 2.2442815,33.9898295 2.73202756,33.9898295 L8.62915354,33.9898295 C9.11700787,33.9898295 9.51370079,34.3875814 9.51370079,34.8764961 C9.51370079,35.3654109 9.11689961,35.7631628 8.62915354,35.7631628 L2.73202756,35.7631628 C2.24417323,35.7631628 1.84748031,35.3654109 1.84748031,34.8764961 L1.84748031,34.8764961 Z M1.84748031,20.6893953 C1.84748031,20.2003721 2.2442815,19.8027287 2.73202756,19.8027287 L8.62915354,19.8027287 C9.11700787,19.8027287 9.51370079,20.2004806 9.51370079,20.6893953 C9.51370079,21.1783101 9.11689961,21.576062 8.62915354,21.576062 L2.73202756,21.576062 C2.24417323,21.5761705 1.84748031,21.1784186 1.84748031,20.6893953 L1.84748031,20.6893953 Z M1.84748031,6.5024031 C1.84748031,6.01337984 2.2442815,5.61573643 2.73202756,5.61573643 L8.62915354,5.61573643 C9.11700787,5.61573643 9.51370079,6.01348837 9.51370079,6.5024031 C9.51370079,6.99131783 9.11689961,7.38906977 8.62915354,7.38906977 L2.73202756,7.38906977 C2.24417323,7.38906977 1.84748031,6.99131783 1.84748031,6.5024031 L1.84748031,6.5024031 Z M33.691939,43.7433798 L42.4661713,43.7433798 L33.691939,52.5386357 L33.691939,43.7433798 L33.691939,43.7433798 Z" id="Shape" fill="#30B4E0"></path>
                    <path d="M49.3194094,0 L48.1399409,0 C47.651437,0 47.2553937,0.396883721 47.2553937,0.886666667 C47.2553937,1.37644961 47.651437,1.77333333 48.1399409,1.77333333 L48.4347539,1.77333333 L48.4347539,53.7925581 L37.8112008,53.7925581 C37.3226969,53.7925581 36.9266535,54.1894419 36.9266535,54.6792248 C36.9266535,55.1690078 37.3226969,55.5658915 37.8112008,55.5658915 L49.3193012,55.5658915 C49.8078051,55.5658915 50.2038484,55.1690078 50.2038484,54.6792248 L50.2038484,0.886666667 C50.2039567,0.396883721 49.8079134,0 49.3194094,0 L49.3194094,0 Z" id="Shape" fill="#30B4E0"></path>
                    <path d="M54.0370669,0 L52.8575984,0 C52.3690945,0 51.9730512,0.396883721 51.9730512,0.886666667 C51.9730512,1.37644961 52.3690945,1.77333333 52.8575984,1.77333333 L53.1524114,1.77333333 L53.1524114,53.7925581 L52.8575984,53.7925581 C52.3690945,53.7925581 51.9730512,54.1894419 51.9730512,54.6792248 C51.9730512,55.1690078 52.3690945,55.5658915 52.8575984,55.5658915 L54.0370669,55.5658915 C54.5255709,55.5658915 54.9216142,55.1690078 54.9216142,54.6792248 L54.9216142,0.886666667 C54.9217224,0.396883721 54.5255709,0 54.0370669,0 L54.0370669,0 Z" id="Shape" fill="#30B4E0"></path>
                    <path d="M9.01148972,49.950155 C9.52684823,49.950155 9.94590584,49.5524031 9.94590584,49.0634884 C9.94590584,48.5745736 9.52673386,48.1768217 9.01148972,48.1768217 L2.78189643,48.1768217 C2.26653792,48.1768217 1.84748031,48.5745736 1.84748031,49.0634884 C1.84748031,49.5524031 2.26665229,49.950155 2.78189643,49.950155 L9.01148972,49.950155 L9.01148972,49.950155 Z" id="Shape" fill="#55C7ED"></path>
                    <path d="M9.01148972,35.7631628 C9.52684823,35.7631628 9.94590584,35.3654109 9.94590584,34.8764961 C9.94590584,34.3875814 9.52673386,33.9898295 9.01148972,33.9898295 L2.78189643,33.9898295 C2.26653792,33.9898295 1.84748031,34.3875814 1.84748031,34.8764961 C1.84748031,35.3654109 2.26665229,35.7631628 2.78189643,35.7631628 L9.01148972,35.7631628 L9.01148972,35.7631628 Z" id="Shape" fill="#55C7ED"></path>
                    <path d="M10.3789767,20.4713643 C10.3789767,19.8633627 9.93738912,19.3687287 9.39459181,19.3687287 L2.83186521,19.3687287 C2.28894742,19.3687287 1.84748031,19.8633627 1.84748031,20.4713643 C1.84748031,21.079366 2.28906791,21.574 2.83186521,21.574 L9.39459181,21.574 C9.9375096,21.574 10.3789767,21.079366 10.3789767,20.4713643 Z" id="Shape" fill="#55C7ED"></path>
                    <path d="M8.57841886,7.38906977 C9.09377737,7.38906977 9.51283498,6.99131783 9.51283498,6.5024031 C9.51283498,6.01348837 9.093663,5.61573643 8.57841886,5.61573643 L2.34882557,5.61573643 C1.83346706,5.61573643 1.41440945,6.01348837 1.41440945,6.5024031 C1.41440945,6.99131783 1.83358143,7.38906977 2.34882557,7.38906977 L8.57841886,7.38906977 L8.57841886,7.38906977 Z" id="Shape" fill="#55C7ED"></path>
                </g>
            </g>
        </g>
    </g>
</svg>